{
  "db_name": "PostgreSQL",
  "query": "\n            UPDATE users SET\n                last_login = $1\n            WHERE user_id = $2\n            RETURNING *\n        ",
  "describe": {
    "columns": [
      {
        "ordinal": 0,
        "name": "user_id",
        "type_info": "Uuid"
      },
      {
        "ordinal": 1,
        "name": "username",
        "type_info": "Varchar"
      },
      {
        "ordinal": 2,
        "name": "hashed_password",
        "type_info": "Varchar"
      },
      {
        "ordinal": 3,
        "name": "deleted",
        "type_info": "Bool"
      },
      {
        "ordinal": 4,
        "name": "email",
        "type_info": "Varchar"
      },
      {
        "ordinal": 5,
        "name": "last_login",
        "type_info": "Timestamptz"
      },
      {
        "ordinal": 6,
        "name": "created_at",
        "type_info": "Timestamptz"
      },
      {
        "ordinal": 7,
        "name": "updated_at",
        "type_info": "Timestamptz"
      }
    ],
    "parameters": {
      "Left": [
        "Timestamptz",
        "Uuid"
      ]
    },
    "nullable": [
      false,
      false,
      false,
      false,
      false,
      true,
      true,
      true
    ]
  },
  "hash": "d2fbd14dafcd636cebca096c6ff3b9377c472b66279302cf82b7c54946bb4265"
}
